{
  "id": "accelerometer-00",
  "objectId": 3313,
  "enable": true,
  "scale": 1,
  "name": "Accelerometer",
  "isFromDatabase": false,
  "userData": {},
  "options": {},
  "dataSource": {
    "timePeriod": 5,
    "dosAttackSpeedUpRate": 5,
    "timeBeforeFailed": 30,
    "sensorBehaviours": [
      "AB_LOW_ENERGY",
      "AB_OUT_OF_ENERGY"
    ],
    "withEnergy": false,
    "energy": {
      "type": "DATA_SOURCE_ENERGY",
      "key": "battery",
      "resourceId": "batter-01",
      "initValue": 1500,
      "unit": "mA",
      "behaviours": [],
      "low": 1000,
      "slowDownRate": 2,
      "consumInOnePeriod": 200
    },
    "sources": [
      {
        "type": "DATA_SOURCE_FLOAT",
        "key": "x_value",
        "resourceId": 5702,
        "initValue": 50,
        "unit": null,
        "behaviours": [],
        "valueConstraints": {
          "min": 0,
          "max": 1000,
          "step": 1
        }
      },
      {
        "type": "DATA_SOURCE_FLOAT",
        "key": "y_value",
        "resourceId": 5703,
        "initValue": 50,
        "unit": null,
        "behaviours": [],
        "valueConstraints": {
          "min": 0,
          "max": 1000,
          "step": 1
        }
      },
      {
        "type": "DATA_SOURCE_FLOAT",
        "key": "z_value",
        "resourceId": 5704,
        "initValue": 50,
        "unit": null,
        "behaviours": [],
        "valueConstraints": {
          "min": 0,
          "max": 1000,
          "step": 1
        }
      },
      {
        "type": "DATA_SOURCE_FLOAT",
        "key": "min_value",
        "resourceId": 5603,
        "initValue": 0,
        "unit": null,
        "behaviours": ["AB_FIX_VALUE"]
      },
      {
        "type": "DATA_SOURCE_FLOAT",
        "key": "max_value",
        "resourceId": 5604,
        "initValue": 1000,
        "unit": null,
        "behaviours": ["AB_FIX_VALUE"]
      },
      {
        "type": "DATA_SOURCE_ENUM",
        "key": "max_value",
        "resourceId": 5604,
        "initValue": "m",
        "unit": null,
        "behaviours": ["AB_FIX_VALUE"],
        "values": ["m","feet","km"]
      }
    ]
  }
}