{
  "id": "led-00",
  "objectId": 3335,
  "enable": true,
  "scale": 1,
  "name": "LED",
  "isFromDatabase": false,
  "userData": {},
  "options": {},
  "dataSource": {
    "timePeriod": 5,
    "dosAttackSpeedUpRate": 5,
    "timeBeforeFailed": 30,
    "sensorBehaviours": [
      "AB_LOW_ENERGY",
      "AB_OUT_OF_ENERGY"
    ],
    "withEnergy": false,
    "energy": {
      "type": "DATA_SOURCE_ENERGY",
      "key": "battery",
      "resourceId": "batter-01",
      "initValue": 1500,
      "unit": "mA",
      "behaviours": [],
      "low": 1000,
      "slowDownRate": 2,
      "consumInOnePeriod": 200
    },
    "sources": [
      {
        "type": "DATA_SOURCE_ENUM",
        "key": "value",
        "resourceId": 5700,
        "initValue": "RED",
        "unit": null,
        "behaviours": [],
        "values": ["RED","GREEN","BLUE","YELLOW"]
      }
    ]
  }
}